[{"data": [{"id": 560430, "common_name": null, "slug": "schoenus-nanus", "scientific_name": "Schoenus nanus", "year": 1878, "bibliography": "Fl. Austral. 7: 364 (1878)", "author": "(Nees) Benth.", "status": "accepted", "rank": "species", "family_common_name": "Sedge family", "genus_id": 5876, "image_url": "https://d2seqvvyy3b8p2.cloudfront.net/7c395798c915d50e4c2f8063dbc5b4e6.jpg", "synonyms": ["Chaetospora nana"], "genus": "Schoenus", "family": "Cyperaceae", "links": {"self": "/api/v1/species/schoenus-nanus", "plant": "/api/v1/plants/schoenus-nanus", "genus": "/api/v1/genus/schoenus"}}, {"id": 116896, "common_name": "Richardson's sedge", "slug": "carex-richardsonii", "scientific_name": "Carex richardsonii", "year": 1823, "bibliography": "J.Franklin, Narr. Journey Polar Sea: 751 (1823)", "author": "R.Br.", "status": "accepted", "rank": "species", "family_common_name": "Sedge family", "genus_id": 1462, "image_url": null, "synonyms": ["Carex richardsonii var. exserta"], "genus": "Carex", "family": "Cyperaceae", "links": {"self": "/api/v1/species/carex-richardsonii", "plant": "/api/v1/plants/carex-richardsonii", "genus": "/api/v1/genus/carex"}}, {"id": 796796, "common_name": null, "slug": "anthocarapa-nitidula", "scientific_name": "Anthocarapa nitidula", "year": 1985, "bibliography": "Blumea 31: 133 (1985)", "author": "(Benth.) T.D.Penn. ex Mabb.", "status": "accepted", "rank": "species", "family_common_name": "Mahogany family", "genus_id": 14494, "image_url": "https://d2seqvvyy3b8p2.cloudfront.net/8e05d650ec867a9b997ed791e8e4f843.jpg", "synonyms": ["Amoora vieillardii", "Pseudocarapa nitidula", "Anthocarapa vieillardii", "Anthocarapa balansana", "Dysoxylum oubatchense", "Amoora nitidula", "Amoora balansana"], "genus": "Anthocarapa", "family": "Meliaceae", "links": {"self": "/api/v1/species/anthocarapa-nitidula", "plant": "/api/v1/plants/anthocarapa-nitidula", "genus": "/api/v1/genus/anthocarapa"}}, {"id": 700355, "common_name": null, "slug": "hydrangea-serrata-var-yesoensis", "scientific_name": "Hydrangea serrata var. yesoensis", "year": 2001, "bibliography": "Fl. Japan 2b: 90 (2001)", "author": "H.Ohba (Koidz.)", "status": "accepted", "rank": "var", "family_common_name": "Hydrangea family", "genus_id": 3654, "image_url": null, "synonyms": ["Hydrangea belzonii", "Hydrangea macrophylla subsp. yezoensis", "Hydrangea yesoensis", "Hydrangea serrata var. megacarpa", "Hortensia cuspidata f. yesoensis", "Hortensia cuspidata", "Hydrangea serrata var. australis", "Viburnum cuspidatum", "Hydrangea cuspidata"], "genus": "Hydrangea", "family": "Hydrangeaceae", "links": {"self": "/api/v1/species/hydrangea-serrata-var-yesoensis", "plant": "/api/v1/plants/hydrangea-serrata", "genus": "/api/v1/genus/hydrangea"}}, {"id": 169999, "common_name": "James' holdback", "slug": "pomaria-jamesii", "scientific_name": "Pomaria jamesii", "year": 1843, "bibliography": "Repert. Bot. Syst. 1: 811 (1843)", "author": "(Torr. & A.Gray) Walp.", "status": "accepted", "rank": "species", "family_common_name": "Pea family", "genus_id": 5563, "image_url": null, "synonyms": ["Caesalpinia jamesii", "Hoffmannseggia jamesii", "Larrea jamesii", "Hoffmannseggia jamesii var. popinoensis"], "genus": "Pomaria", "family": "Fabaceae", "links": {"self": "/api/v1/species/pomaria-jamesii", "plant": "/api/v1/plants/pomaria-jamesii", "genus": "/api/v1/genus/pomaria"}}, {"id": 129395, "common_name": "Indian yam", "slug": "dioscorea-trifida", "scientific_name": "Dioscorea trifida", "year": 1782, "bibliography": "Suppl. Pl.: 427 (1782)", "author": "L.f.", "status": "accepted", "rank": "species", "family_common_name": "Yam family", "genus_id": 2475, "image_url": "https://d2seqvvyy3b8p2.cloudfront.net/c52d3566e5578df249c4fabc07430964.jpg", "synonyms": ["Dioscorea ruiziana", "Dioscorea angustifolia", "Dioscorea affinis", "Dioscorea goyazensis", "Dioscorea brasiliensis", "Dioscorea palmata", "Dioscorea quinqueloba", "Dioscorea articulata", "Dioscorea quinquelobata"], "genus": "Dioscorea", "family": "Dioscoreaceae", "links": {"self": "/api/v1/species/dioscorea-trifida", "plant": "/api/v1/plants/dioscorea-trifida", "genus": "/api/v1/genus/dioscorea"}}, {"id": 541294, "common_name": null, "slug": "sedum-fragrans", "scientific_name": "Sedum fragrans", "year": 1983, "bibliography": "Bot. Helv. 93: 277 (1983)", "author": "'t Hart", "status": "accepted", "rank": "species", "family_common_name": "Stonecrop family", "genus_id": 2395, "image_url": "https://bs.plantnet.org/image/o/dc259464d15556f5d990a80d2b3d2c93310f0a55", "synonyms": ["Sedum alsinifolium", "Sedum ellipticum", "Oreosedum alsinifolium"], "genus": "Sedum", "family": "Crassulaceae", "links": {"self": "/api/v1/species/sedum-fragrans", "plant": "/api/v1/plants/sedum-fragrans", "genus": "/api/v1/genus/sedum"}}, {"id": 1202475, "common_name": null, "slug": "pentanema-candidum", "scientific_name": "Pentanema candidum", "year": null, "bibliography": null, "author": "(L.)", "status": "accepted", "rank": "species", "family_common_name": "Aster family", "genus_id": 9399, "image_url": null, "synonyms": [], "genus": "Pentanema", "family": "Asteraceae", "links": {"self": "/api/v1/species/pentanema-candidum", "plant": "/api/v1/plants/pentanema-candidum", "genus": "/api/v1/genus/pentanema"}}, {"id": 908372, "common_name": null, "slug": "thelymitra-aristata", "scientific_name": "Thelymitra aristata", "year": 1840, "bibliography": "Gen. Sp. Orchid. Pl.: 521 (1840)", "author": "Lindl.", "status": "accepted", "rank": "species", "family_common_name": null, "genus_id": 15402, "image_url": "https://d2seqvvyy3b8p2.cloudfront.net/e1039600a839c37db0b6af70acbdcd45.jpg", "synonyms": ["Thelymitra murdochiae", "Thelymitra angustifolia"], "genus": "Thelymitra", "family": "Orchidaceae", "links": {"self": "/api/v1/species/thelymitra-aristata", "plant": "/api/v1/plants/thelymitra-aristata", "genus": "/api/v1/genus/thelymitra"}}, {"id": 1023436, "common_name": null, "slug": "primula-minima", "scientific_name": "Primula minima", "year": 1753, "bibliography": "Sp. Pl.: 143 (1753)", "author": "L.", "status": "accepted", "rank": "species", "family_common_name": "Primrose family", "genus_id": 2524, "image_url": "https://bs.plantnet.org/image/o/70945c143c38ca3fa1f5dfceefdbc9da192f2486", "synonyms": ["Auricula-ursi minima", "Primula sauteri", "Primula pseudoforsteri", "Aretia truncata", "Auricula minima", "Auricula villosa", "Kablikia minima", "Primula truncata", "Aretia minima", "Kablikia truncata"], "genus": "Primula", "family": "Primulaceae", "links": {"self": "/api/v1/species/primula-minima", "plant": "/api/v1/plants/primula-minima", "genus": "/api/v1/genus/primula"}}, {"id": 141749, "common_name": "Salt heliotrope", "slug": "heliotropium-curassavicum-var-oculatum", "scientific_name": "Heliotropium curassavicum var. oculatum", "year": 1935, "bibliography": "Proc. Biol. Soc. Wash. 48:42.  1935", "author": "I.M.Johnst. ex Tidestr.", "status": "accepted", "rank": "var", "family_common_name": "Borage family", "genus_id": 3452, "image_url": null, "synonyms": ["Heliotropium oculatum", "Heliotropium curassavicum subsp. oculatum"], "genus": "Heliotropium", "family": "Boraginaceae", "links": {"self": "/api/v1/species/heliotropium-curassavicum-var-oculatum", "plant": "/api/v1/plants/heliotropium-curassavicum", "genus": "/api/v1/genus/heliotropium"}}, {"id": 982717, "common_name": null, "slug": "eragrostis-inamoena", "scientific_name": "Eragrostis inamoena", "year": 1895, "bibliography": "H.G.A.Engler (ed.), Pflanzenw. Ost-Afrikas, C: 115 (1895)", "author": "K.Schum.", "status": "accepted", "rank": "species", "family_common_name": "Grass family", "genus_id": 1815, "image_url": "https://storage.googleapis.com/powop-assets/PPA/0151_0200/h0192d_fullsize.jpg", "synonyms": ["Eragrostis galpinii", "Eragrostis calantha"], "genus": "Eragrostis", "family": "Poaceae", "links": {"self": "/api/v1/species/eragrostis-inamoena", "plant": "/api/v1/plants/eragrostis-inamoena", "genus": "/api/v1/genus/eragrostis"}}, {"id": 1244690, "common_name": "Thick-leaf stonecrop", "slug": "sedum-dasyphyllum-var-glanduliferum", "scientific_name": "Sedum dasyphyllum var. glanduliferum", "year": 1996, "bibliography": "Anales Jard. Bot. Madrid 53: 275 (1995 publ. 1996)", "author": "Moris (Guss.)", "status": "accepted", "rank": "var", "family_common_name": "Stonecrop family", "genus_id": 2395, "image_url": null, "synonyms": ["Sedum dasyphyllum subsp. granatense"], "genus": "Sedum", "family": "Crassulaceae", "links": {"self": "/api/v1/species/sedum-dasyphyllum-var-glanduliferum", "plant": "/api/v1/plants/sedum-dasyphyllum", "genus": "/api/v1/genus/sedum"}}, {"id": 1163459, "common_name": "Jacob's-ladder", "slug": "polemonium-pulcherrimum-subsp-delicatum", "scientific_name": "Polemonium pulcherrimum subsp. delicatum", "year": 1959, "bibliography": "Vasc. Pl. Pacif. N.W. 4: 142 (1959)", "author": "Brand (Rydb.)", "status": "accepted", "rank": "ssp", "family_common_name": "Phlox family", "genus_id": 5502, "image_url": null, "synonyms": ["Polemonium delicatum subsp. scopulinum", "Polemonium delicatum subsp. typicum", "Polemonium pulcherrimum var. delicatum"], "genus": "Polemonium", "family": "Polemoniaceae", "links": {"self": "/api/v1/species/polemonium-pulcherrimum-subsp-delicatum", "plant": "/api/v1/plants/polemonium-pulcherrimum", "genus": "/api/v1/genus/polemonium"}}, {"id": 366825, "common_name": null, "slug": "sowerbaea-laxiflora", "scientific_name": "Sowerbaea laxiflora", "year": 1841, "bibliography": "Edwards's Bot. Reg. 27: t. 10 (1841)", "author": "Lindl.", "status": "accepted", "rank": "species", "family_common_name": null, "genus_id": 10888, "image_url": "https://bs.plantnet.org/image/o/ac4a48a267307581c80ed61a614ac3e9dd2fe444", "synonyms": [], "genus": "Sowerbaea", "family": "Asparagaceae", "links": {"self": "/api/v1/species/sowerbaea-laxiflora", "plant": "/api/v1/plants/sowerbaea-laxiflora", "genus": "/api/v1/genus/sowerbaea"}}, {"id": 1017972, "common_name": null, "slug": "hemionitis-pteridioides", "scientific_name": "Hemionitis pteridioides", "year": 2018, "bibliography": "Global Fl. 4: 19 (2018)", "author": "(Reichard) Christenh.", "status": "accepted", "rank": "species", "family_common_name": "Maidenhair Fern family", "genus_id": 3470, "image_url": "https://bs.plantnet.org/image/o/d5478fbb62f37bd218a5ce0487d5804f0e6db538", "synonyms": ["Polypodium fragrans", "Adiantum fragrans", "Allosorus pteridioides", "Allosorus fragrans", "Hemionitis maderensis", "Negripteris quezelii", "Oeosporangium pteridioides subsp. reichsteinii", "Allosorus marchettianus", "Polypodium pteryoides", "Adiantum suaveolens", "Adiantum odoratum", "Cheilanthes pteridioides", "Hemionitis quezelii", "Cheilanthes fragrans", "Oeosporangium pteridioides", "Cheilanthes marchettiana", "Pteris fragrans", "Polypodium pteridioides", "Cheilanthes pteridioides subsp. maderensis", "Adiantum pusillum", "Cheilanthes maderensis", "Cheilanthes suaveolens", "Cheilanthes squamosa", "Cheilanthes microphylla"], "genus": "Hemionitis", "family": "Pteridaceae", "links": {"self": "/api/v1/species/hemionitis-pteridioides", "plant": "/api/v1/plants/hemionitis-pteridioides", "genus": "/api/v1/genus/hemionitis"}}, {"id": 565385, "common_name": null, "slug": "rhynchospora-riparia", "scientific_name": "Rhynchospora riparia", "year": 1873, "bibliography": "Linnaea 37: 561 (1873)", "author": "(Nees) Boeckeler", "status": "accepted", "rank": "species", "family_common_name": "Sedge family", "genus_id": 5873, "image_url": "https://d2seqvvyy3b8p2.cloudfront.net/8327ba1e2567d3fbad672cd64d665850.jpg", "synonyms": ["Rhynchospora canaliculata", "Rhynchospora tenuis var. maritima", "Haloschoenus capillaris var. congestus", "Haloschoenus riparius", "Dichromena riparia", "Rhynchospora rudioi", "Dichromena canaliculata", "Rhynchospora tenuis subsp. riparia", "Rhynchospora tenuis var. congesta"], "genus": "Rhynchospora", "family": "Cyperaceae", "links": {"self": "/api/v1/species/rhynchospora-riparia", "plant": "/api/v1/plants/rhynchospora-riparia", "genus": "/api/v1/genus/rhynchospora"}}, {"id": 456958, "common_name": null, "slug": "euploca-filiformis", "scientific_name": "Euploca filiformis", "year": 2009, "bibliography": "Kew Bull. 64: 288 (2009)", "author": "(Lehm.) J.I.M.Melo & Semir", "status": "accepted", "rank": "species", "family_common_name": "Borage family", "genus_id": 3455, "image_url": "https://d2seqvvyy3b8p2.cloudfront.net/ac2938a1a547554a6986e0a05fdc30c5.jpg", "synonyms": ["Heliotropium filiforme", "Heliotropium littorale", "Heliotropium stenostachyum", "Heliotropium pusillum", "Heliotropium helophilum", "Heliotropium tenue", "Schleidenia stenostachya", "Schleidenia ovalifolia", "Schleidenia filiformis", "Preslaea stenostachya"], "genus": "Euploca", "family": "Boraginaceae", "links": {"self": "/api/v1/species/euploca-filiformis", "plant": "/api/v1/plants/euploca-filiformis", "genus": "/api/v1/genus/euploca"}}, {"id": 255666, "common_name": null, "slug": "helichrysum-felinum", "scientific_name": "Helichrysum felinum", "year": 1832, "bibliography": "Syn. Gen. Compos.: 287 (1832)", "author": "Less.", "status": "accepted", "rank": "species", "family_common_name": "Aster family", "genus_id": 1109, "image_url": "https://d2seqvvyy3b8p2.cloudfront.net/567479ca99767150c43e481eedaecfd1.jpg", "synonyms": ["Gnaphalium elongatum", "Helichrysum congestum", "Helichrysum discolorum", "Gnaphalium congestum", "Gnaphalium felinum", "Gnaphalium serratum", "Gnaphalium fastigiatum"], "genus": "Helichrysum", "family": "Asteraceae", "links": {"self": "/api/v1/species/helichrysum-felinum", "plant": "/api/v1/plants/helichrysum-felinum", "genus": "/api/v1/genus/helichrysum"}}, {"id": 118349, "common_name": null, "slug": "zeltnera-exaltata", "scientific_name": "Zeltnera exaltata", "year": 2004, "bibliography": "Taxon 53: 731 (2004)", "author": "(Griseb.) G.Mans.", "status": "accepted", "rank": "species", "family_common_name": "Gentian family", "genus_id": 1577, "image_url": "https://d2seqvvyy3b8p2.cloudfront.net/d48c32ad54a92b001de8099e93f094b9.jpg", "synonyms": ["Cicendia exaltata", "Centaurium exaltatum", "Centaurium nuttallii", "Erythraea exaltata", "Erythraea tenella", "Erythraea nuttallii", "Erythraea douglasii", "Erythraea elata", "Centaurium douglasii", "Erythraea longiflora"], "genus": "Zeltnera", "family": "Gentianaceae", "links": {"self": "/api/v1/species/zeltnera-exaltata", "plant": "/api/v1/plants/zeltnera-exaltata", "genus": "/api/v1/genus/zeltnera"}}], "links": {"self": "/api/v1/species?page=1000", "first": "/api/v1/species?page=1", "prev": "/api/v1/species?page=999", "next": "/api/v1/species?page=1001", "last": "/api/v1/species?page=20348"}, "meta": {"total": 406944}}]